…
*Hint:* This is one of those times when you should think about the
cleanliness of your analysis. I added a single code chunk for you below,
but do you want to use more than one? Would you like to write more
comments outside of the code chunk?

<!-------------------------- Start your work below ---------------------------->

``` r
### EXPLORE HERE ###
cancer_sample
```

    ## # A tibble: 569 x 32
    ##          ID diagnosis radius_m~1 textu~2 perim~3 area_~4 smoot~5 compa~6 conca~7
    ##       <dbl> <chr>          <dbl>   <dbl>   <dbl>   <dbl>   <dbl>   <dbl>   <dbl>
    ##  1   842302 M               18.0    10.4   123.    1001   0.118   0.278   0.300 
    ##  2   842517 M               20.6    17.8   133.    1326   0.0847  0.0786  0.0869
    ##  3 84300903 M               19.7    21.2   130     1203   0.110   0.160   0.197 
    ##  4 84348301 M               11.4    20.4    77.6    386.  0.142   0.284   0.241 
    ##  5 84358402 M               20.3    14.3   135.    1297   0.100   0.133   0.198 
    ##  6   843786 M               12.4    15.7    82.6    477.  0.128   0.17    0.158 
    ##  7   844359 M               18.2    20.0   120.    1040   0.0946  0.109   0.113 
    ##  8 84458202 M               13.7    20.8    90.2    578.  0.119   0.164   0.0937
    ##  9   844981 M               13      21.8    87.5    520.  0.127   0.193   0.186 
    ## 10 84501001 M               12.5    24.0    84.0    476.  0.119   0.240   0.227 
    ## # ... with 559 more rows, 23 more variables: concave_points_mean <dbl>,
    ## #   symmetry_mean <dbl>, fractal_dimension_mean <dbl>, radius_se <dbl>,
    ## #   texture_se <dbl>, perimeter_se <dbl>, area_se <dbl>, smoothness_se <dbl>,
    ## #   compactness_se <dbl>, concavity_se <dbl>, concave_points_se <dbl>,
    ## #   symmetry_se <dbl>, fractal_dimension_se <dbl>, radius_worst <dbl>,
    ## #   texture_worst <dbl>, perimeter_worst <dbl>, area_worst <dbl>,
    ## #   smoothness_worst <dbl>, compactness_worst <dbl>, concavity_worst <dbl>, ...

``` r
flow_sample
```

    ## # A tibble: 218 x 7
    ##    station_id  year extreme_type month   day  flow sym  
    ##    <chr>      <dbl> <chr>        <dbl> <dbl> <dbl> <chr>
    ##  1 05BB001     1909 maximum          7     7   314 <NA> 
    ##  2 05BB001     1910 maximum          6    12   230 <NA> 
    ##  3 05BB001     1911 maximum          6    14   264 <NA> 
    ##  4 05BB001     1912 maximum          8    25   174 <NA> 
    ##  5 05BB001     1913 maximum          6    11   232 <NA> 
    ##  6 05BB001     1914 maximum          6    18   214 <NA> 
    ##  7 05BB001     1915 maximum          6    27   236 <NA> 
    ##  8 05BB001     1916 maximum          6    20   309 <NA> 
    ##  9 05BB001     1917 maximum          6    17   174 <NA> 
    ## 10 05BB001     1918 maximum          6    15   345 <NA> 
    ## # ... with 208 more rows

``` r
vancouver_trees
```

    ## # A tibble: 146,611 x 20
    ##    tree_id civic_number std_st~1 genus~2 speci~3 culti~4 commo~5 assig~6 root_~7
    ##      <dbl>        <dbl> <chr>    <chr>   <chr>   <chr>   <chr>   <chr>   <chr>  
    ##  1  149556          494 W 58TH ~ ULMUS   AMERIC~ BRANDON BRANDO~ N       N      
    ##  2  149563          450 W 58TH ~ ZELKOVA SERRATA <NA>    JAPANE~ N       N      
    ##  3  149579         4994 WINDSOR~ STYRAX  JAPONI~ <NA>    JAPANE~ N       N      
    ##  4  149590          858 E 39TH ~ FRAXIN~ AMERIC~ AUTUMN~ AUTUMN~ Y       N      
    ##  5  149604         5032 WINDSOR~ ACER    CAMPES~ <NA>    HEDGE ~ N       N      
    ##  6  149616          585 W 61ST ~ PYRUS   CALLER~ CHANTI~ CHANTI~ N       N      
    ##  7  149617         4909 SHERBRO~ ACER    PLATAN~ COLUMN~ COLUMN~ N       N      
    ##  8  149618         4925 SHERBRO~ ACER    PLATAN~ COLUMN~ COLUMN~ N       N      
    ##  9  149619         4969 SHERBRO~ ACER    PLATAN~ COLUMN~ COLUMN~ N       N      
    ## 10  149625          720 E 39TH ~ FRAXIN~ AMERIC~ AUTUMN~ AUTUMN~ N       N      
    ## # ... with 146,601 more rows, 11 more variables: plant_area <chr>,
    ## #   on_street_block <dbl>, on_street <chr>, neighbourhood_name <chr>,
    ## #   street_side_name <chr>, height_range_id <dbl>, diameter <dbl>, curb <chr>,
    ## #   date_planted <date>, longitude <dbl>, latitude <dbl>, and abbreviated
    ## #   variable names 1: std_street, 2: genus_name, 3: species_name,
    ## #   4: cultivar_name, 5: common_name, 6: assigned, 7: root_barrier

``` r
parking_meters
```

    ## # A tibble: 10,032 x 22
    ##    meter_head  r_mf_9a~1 r_mf_~2 r_sa_~3 r_sa_~4 r_su_~5 r_su_~6 rate_~7 time_~8
    ##    <chr>       <chr>     <chr>   <chr>   <chr>   <chr>   <chr>   <chr>   <chr>  
    ##  1 Twin        $2.00     $4.00   $2.00   $4.00   $2.00   $4.00   <NA>    METER ~
    ##  2 Pay Station $1.00     $1.00   $1.00   $1.00   $1.00   $1.00   $ .50   METER ~
    ##  3 Twin        $1.00     $1.00   $1.00   $1.00   $1.00   $1.00   <NA>    METER ~
    ##  4 Single      $1.00     $1.00   $1.00   $1.00   $1.00   $1.00   <NA>    METER ~
    ##  5 Twin        $2.00     $1.00   $2.00   $1.00   $2.00   $1.00   <NA>    METER ~
    ##  6 Twin        $2.00     $1.00   $2.00   $1.00   $2.00   $1.00   <NA>    METER ~
    ##  7 Twin        $2.00     $3.00   $2.00   $3.00   $2.00   $3.00   <NA>    METER ~
    ##  8 Single      $2.00     $3.00   $2.00   $3.00   $2.00   $3.00   <NA>    METER ~
    ##  9 Twin        $4.00     $1.00   $4.00   $1.00   $4.00   $1.00   <NA>    METER ~
    ## 10 Twin        $2.00     $1.00   $2.00   $1.00   $2.00   $1.00   <NA>    METER ~
    ## # ... with 10,022 more rows, 13 more variables: t_mf_9a_6p <chr>,
    ## #   t_mf_6p_10 <chr>, t_sa_9a_6p <chr>, t_sa_6p_10 <chr>, t_su_9a_6p <chr>,
    ## #   t_su_6p_10 <chr>, time_misc <chr>, credit_card <chr>, pay_phone <chr>,
    ## #   longitude <dbl>, latitude <dbl>, geo_local_area <chr>, meter_id <chr>, and
    ## #   abbreviated variable names 1: r_mf_9a_6p, 2: r_mf_6p_10, 3: r_sa_9a_6p,
    ## #   4: r_sa_6p_10, 5: r_su_9a_6p, 6: r_su_6p_10, 7: rate_misc,
    ## #   8: time_in_effect
…
    ## # A tibble: 2 x 1
    ##   area_mean
    ##       <dbl>
    ## 1      362.
    ## 2     2501

``` r
malignant %>% mutate(area_mean_category=cut(area_mean, breaks=c(361.6, 800, 1200, 2501.0), labels=c("small", "medium", "large")))
```

    ## # A tibble: 212 x 33
    ##          ID diagnosis radius_m~1 textu~2 perim~3 area_~4 smoot~5 compa~6 conca~7
    ##       <dbl> <chr>          <dbl>   <dbl>   <dbl>   <dbl>   <dbl>   <dbl>   <dbl>
    ##  1   842302 M               18.0    10.4   123.    1001   0.118   0.278   0.300 
    ##  2   842517 M               20.6    17.8   133.    1326   0.0847  0.0786  0.0869
    ##  3 84300903 M               19.7    21.2   130     1203   0.110   0.160   0.197 
    ##  4 84348301 M               11.4    20.4    77.6    386.  0.142   0.284   0.241 
    ##  5 84358402 M               20.3    14.3   135.    1297   0.100   0.133   0.198 
    ##  6   843786 M               12.4    15.7    82.6    477.  0.128   0.17    0.158 
    ##  7   844359 M               18.2    20.0   120.    1040   0.0946  0.109   0.113 
    ##  8 84458202 M               13.7    20.8    90.2    578.  0.119   0.164   0.0937
    ##  9   844981 M               13      21.8    87.5    520.  0.127   0.193   0.186 
    ## 10 84501001 M               12.5    24.0    84.0    476.  0.119   0.240   0.227 
    ## # ... with 202 more rows, 24 more variables: concave_points_mean <dbl>,
    ## #   symmetry_mean <dbl>, fractal_dimension_mean <dbl>, radius_se <dbl>,
    ## #   texture_se <dbl>, perimeter_se <dbl>, area_se <dbl>, smoothness_se <dbl>,
    ## #   compactness_se <dbl>, concavity_se <dbl>, concave_points_se <dbl>,
    ## #   symmetry_se <dbl>, fractal_dimension_se <dbl>, radius_worst <dbl>,
    ## #   texture_worst <dbl>, perimeter_worst <dbl>, area_worst <dbl>,
    ## #   smoothness_worst <dbl>, compactness_worst <dbl>, concavity_worst <dbl>, ...
…
